[
  { "objectID": "7f4f6dd2-cdf1-48e1-ba66-7d6c9178b483", "online": false },
  { "objectID": "04204b70-9e62-421c-8393-1f46393eb7da", "online": false },
  { "objectID": "37e6e50b-5907-4d76-9226-e3edf060d3a0", "online": false },
  { "objectID": "4fb2bcad-a5c9-4bb9-98f9-9719d190ef62", "online": false },
  { "objectID": "9c4295b5-3cdb-4e18-94d6-7ef6dc855d0f", "online": false },
  { "objectID": "5de97d00-21ef-4842-b97c-6526d0a7744b", "online": false },
  { "objectID": "334c0be5-61d4-4a01-9206-45bc9e0612f5", "online": false },
  { "objectID": "6afa6d20-cea3-41c2-a341-1bbae5920eb3", "online": false },
  { "objectID": "4db1ca29-249e-4d60-a47f-de518df664d2", "online": false },
  { "objectID": "1fae1dde-f769-4c04-bde0-03256e59ad7f", "online": false },
  { "objectID": "9d89c294-ee93-4bf4-9fcf-62c8d553e372", "online": false },
  { "objectID": "62cffc2c-c914-4502-a401-ba80a6acf198", "online": false },
  { "objectID": "ea098a18-b73e-40df-83a9-c96de73fd8bb", "online": false },
  { "objectID": "7a096ede-4378-4268-9a2a-5d4dc7470642", "online": false },
  { "objectID": "65020be7-f0bc-4bee-8581-f679297cb16b", "online": false },
  { "objectID": "d539cb99-b31d-448a-8b2b-61c39f7ce622", "online": false },
  { "objectID": "e38016a4-146b-4016-8481-0f9b38e5bac0", "online": false },
  { "objectID": "ab34a004-3623-4363-8007-390fcc060172", "online": false },
  { "objectID": "fe7906bd-8671-4bbc-8504-3f5011fbb32d", "online": false },
  { "objectID": "48b690be-b340-425a-8f0e-4797b7424584", "online": false },
  { "objectID": "bc4dd0e5-220a-4188-bb14-015bd38925e3", "online": false },
  { "objectID": "f7b36dc5-6899-425e-b7a6-c66ab052c561", "online": false },
  { "objectID": "3f0f0ded-2831-4da1-8326-9ac4011cfdf0", "online": false },
  { "objectID": "e56b4090-0520-4b37-bdf3-561abf548554", "online": false },
  { "objectID": "2ede1a11-36fe-4977-99fc-2a7297288266", "online": false },
  { "objectID": "e48f571a-2009-4704-88b8-868503695bd5", "online": false },
  { "objectID": "a35b09fe-6716-4b75-8a68-81ea1b43b894", "online": false },
  { "objectID": "d8a94075-cc58-4fc8-aee0-5435078a2f90", "online": false },
  { "objectID": "f38a76f5-8e8d-49e3-827a-baeed59b56b6", "online": false },
  { "objectID": "2945c42c-2acd-45cc-92f4-08cf09669ba2", "online": false },
  { "objectID": "a2b22a91-c036-4c78-a366-9d31ca557071", "online": false },
  { "objectID": "C_AT_UK_SHOP_0348399_429df9", "online": false },
  { "objectID": "f2ad13b9-0952-4765-8305-646bf50aae41", "online": false },
  { "objectID": "7f4f6dd2-cdf1-48e1-ba66-7d6c9178b483", "online": false },
  { "objectID": "37e6e50b-5907-4d76-9226-e3edf060d3a0", "online": false },
  { "objectID": "a50fdb36-1b59-4983-adfa-75f3d959b227", "online": false },
  { "objectID": "9c4295b5-3cdb-4e18-94d6-7ef6dc855d0f", "online": false },
  { "objectID": "334c0be5-61d4-4a01-9206-45bc9e0612f5", "online": false },
  { "objectID": "6afa6d20-cea3-41c2-a341-1bbae5920eb3", "online": false },
  { "objectID": "4db1ca29-249e-4d60-a47f-de518df664d2", "online": false },
  { "objectID": "dd5a6e46-176e-486a-bb5a-8b72596da7b6", "online": false },
  { "objectID": "1fae1dde-f769-4c04-bde0-03256e59ad7f", "online": false },
  { "objectID": "ae2f7156-5863-4faa-b414-31c54746e2aa", "online": false },
  { "objectID": "9d89c294-ee93-4bf4-9fcf-62c8d553e372", "online": false },
  { "objectID": "62cffc2c-c914-4502-a401-ba80a6acf198", "online": false },
  { "objectID": "ea098a18-b73e-40df-83a9-c96de73fd8bb", "online": false },
  { "objectID": "7a096ede-4378-4268-9a2a-5d4dc7470642", "online": false },
  { "objectID": "65020be7-f0bc-4bee-8581-f679297cb16b", "online": false },
  { "objectID": "f9e6b394-92f4-4395-9007-eca36dcb86bd", "online": false },
  { "objectID": "d539cb99-b31d-448a-8b2b-61c39f7ce622", "online": false },
  { "objectID": "2cb15a7b-4e87-4427-85c9-973aca69c423", "online": false },
  { "objectID": "e38016a4-146b-4016-8481-0f9b38e5bac0", "online": false },
  { "objectID": "5296f1ab-7145-49ba-8a43-f7084b3a8d24", "online": false },
  { "objectID": "ab34a004-3623-4363-8007-390fcc060172", "online": false },
  { "objectID": "fe7906bd-8671-4bbc-8504-3f5011fbb32d", "online": false },
  { "objectID": "f7b36dc5-6899-425e-b7a6-c66ab052c561", "online": false },
  { "objectID": "3f0f0ded-2831-4da1-8326-9ac4011cfdf0", "online": false },
  { "objectID": "e56b4090-0520-4b37-bdf3-561abf548554", "online": false },
  { "objectID": "5c341c71-c458-45c9-9b13-71215de5394a", "online": false },
  { "objectID": "e48f571a-2009-4704-88b8-868503695bd5", "online": false },
  { "objectID": "f38a76f5-8e8d-49e3-827a-baeed59b56b6", "online": false },
  { "objectID": "2945c42c-2acd-45cc-92f4-08cf09669ba2", "online": false },
  { "objectID": "a2b22a91-c036-4c78-a366-9d31ca557071", "online": false },
  { "objectID": "04204b70-9e62-421c-8393-1f46393eb7da", "online": false },
  { "objectID": "4fb2bcad-a5c9-4bb9-98f9-9719d190ef62", "online": false },
  { "objectID": "5de97d00-21ef-4842-b97c-6526d0a7744b", "online": false },
  { "objectID": "a35b09fe-6716-4b75-8a68-81ea1b43b894", "online": false },
  { "objectID": "fd86f964-9b92-4b8d-b39f-f6cae8e6fa5f", "online": false },
  { "objectID": "1a42c8e1-67a1-4615-8ec3-e822b0b6def7", "online": false },
  { "objectID": "1df53897-85fa-4b96-a649-9fc0f9c52c92", "online": false },
  { "objectID": "29d9757c-32a9-460f-86e5-dbd49f8a4f03", "online": false },
  { "objectID": "4762d673-4e5f-4d8c-943f-4a1f43fb3abb", "online": false },
  { "objectID": "d7ee51f0-b016-4d2e-8e8b-d5c6d3666137", "online": false },
  { "objectID": "Suzieee_spacenk6968", "online": false },
  { "objectID": "Suzieee_spacenk6957", "online": false },
  { "objectID": "Suzieee_spacenk6956", "online": false },
  { "objectID": "Suzieee_spacenk3431", "online": false },
  { "objectID": "a4a22b2c-17e8-4594-8865-cbd3fd8d26f4", "online": false },
  { "objectID": "cbd5d264-6f57-45dd-b8ea-8dcb809f5c9c", "online": false },
  { "objectID": "cbd81bad-225f-4dc9-aa13-ad350081d6de", "online": false },
  { "objectID": "45f958d4-fee1-4c6e-920a-cbd0b93da124", "online": false },
  { "objectID": "f86944cb-272b-4b9d-9e53-cbdf6dc6ea6e", "online": false },
  { "objectID": "f807ad20-cd3c-43a4-a6b7-907d2e469e05", "online": false },
  { "objectID": "e86a2823-2472-4c3d-bd02-16270884c063", "online": false },
  { "objectID": "9add50da-b3f5-4ef7-8e15-bdca274ef926", "online": false },
  { "objectID": "Suzieee_spacenk6483", "online": false },
  { "objectID": "Suzieee_spacenk6452", "online": false },
  { "objectID": "Suzieee_spacenk6451", "online": false },
  { "objectID": "Suzieee_spacenk6450", "online": false },
  { "objectID": "Suzieee_spacenk6448", "online": false },
  { "objectID": "Suzieee_spacenk6307", "online": false },
  { "objectID": "Suzieee_spacenk6306", "online": false },
  { "objectID": "7d95ff53-e6f6-4534-a365-78a190084a38", "online": false }
]
