[
  { "objectID": "vembulous_90333a0", "online": false },
  { "objectID": "e7156474-4015-41c3-87eb-2339a5e284d4", "online": false },
  { "objectID": "dda9ec6b-513d-4142-88da-149f7f7c788f", "online": false },
  { "objectID": "d6775ff0-a409-4504-b9ec-d1421d24de58", "online": false },
  { "objectID": "b3843b63-d4b3-479d-bccf-6632a284f63b", "online": false },
  { "objectID": "81c85d0a-16f1-4254-b0b3-b966032cfda1", "online": false },
  { "objectID": "125ea28e-a865-48c7-89ca-a0099be7005a", "online": false },
  { "objectID": "ccd1c1d3-516b-478c-806b-abd0ff16fb9a", "online": false },
  { "objectID": "7c66b61c-ed18-4ab9-99a5-98a14883310c", "online": false },
  { "objectID": "33d7c107-eb4a-453a-b31b-0a36870bdd5c", "online": false },
  { "objectID": "f1a67c65-3776-47bf-b5da-05ef4eb579ae", "online": false },
  { "objectID": "5e43167e-3331-485a-b56d-6b604d26e61b", "online": false },
  { "objectID": "08484000-c0d6-4794-b298-76ca35b548b7", "online": false },
  { "objectID": "4816f77f-50af-4b9d-a3b5-fb26f8aeb217", "online": false },
  { "objectID": "62e8be0d-3e63-4e97-a17e-2cee87d72878", "online": false },
  { "objectID": "f2b36ed6-6bdf-4744-9009-1fa9204c29a0", "online": false },
  { "objectID": "ae9a24ed-78f1-4233-bcbd-03817c52fa0f", "online": false },
  { "objectID": "e7156474-4015-41c3-87eb-2339a5e284d4", "online": false },
  { "objectID": "96bc84b2-75d9-4a66-967b-75fb8b6d7b59", "online": false },
  { "objectID": "1e29b215-ed3f-43d8-b0c5-a9f5f5fbe4e5", "online": false },
  { "objectID": "dda9ec6b-513d-4142-88da-149f7f7c788f", "online": false },
  { "objectID": "d6775ff0-a409-4504-b9ec-d1421d24de58", "online": false },
  { "objectID": "b3843b63-d4b3-479d-bccf-6632a284f63b", "online": false },
  { "objectID": "81c85d0a-16f1-4254-b0b3-b966032cfda1", "online": false },
  { "objectID": "125ea28e-a865-48c7-89ca-a0099be7005a", "online": false },
  { "objectID": "33d7c107-eb4a-453a-b31b-0a36870bdd5c", "online": false },
  { "objectID": "f1a67c65-3776-47bf-b5da-05ef4eb579ae", "online": false },
  { "objectID": "5e43167e-3331-485a-b56d-6b604d26e61b", "online": false },
  { "objectID": "08484000-c0d6-4794-b298-76ca35b548b7", "online": false },
  { "objectID": "f2b36ed6-6bdf-4744-9009-1fa9204c29a0", "online": false },
  { "objectID": "ae9a24ed-78f1-4233-bcbd-03817c52fa0f", "online": false },
  { "objectID": "vembulous_90333a0", "online": false },
  { "objectID": "Yuniki_s_33cf338", "online": false },
  { "objectID": "a7396b9e-3462-4e42-ad12-924088dc9ff7", "online": false },
  { "objectID": "Gooddaygoodday_17a17b1_c4400a", "online": false },
  { "objectID": "Gooddaygoodday_c19cb8b_e555b6", "online": false },
  { "objectID": "41b02a2f-2731-4794-a858-63f5a3a1910b", "online": false },
  { "objectID": "0650a1e0-cbda-4419-b13a-756ac2ae107e", "online": false },
  { "objectID": "79241c93-b022-474b-bee0-cbdff42a9f39", "online": false },
  { "objectID": "8d7efabc-cbd2-4edf-b5a1-42c0af7d03ab", "online": false },
  { "objectID": "cclemon_77544d7", "online": false },
  { "objectID": "cclemon_010014036", "online": false },
  { "objectID": "122ca871-665b-44ca-a4c6-a044ed723746", "online": false },
  { "objectID": "Japaholicshop_TW_337d532", "online": false }
]
