[
  { "objectID": "e086a945-050c-4717-ba23-5f1b43516048", "online": false },
  { "objectID": "4e92651e-6a43-4a20-8a08-f114b8855399", "online": false },
  { "objectID": "63f5b8db-de05-42c3-9bc3-fc449fe48365", "online": false },
  { "objectID": "9fa952f0-a5d8-440d-8b6f-1629229ea6d9", "online": false },
  { "objectID": "c310c0ed-5bb6-42b7-b58a-64aed5368fa9", "online": false },
  { "objectID": "2c9621d4-36bc-4390-8e13-0b99167e9267", "online": false },
  { "objectID": "07ec38d9-7999-423d-8bed-60383c6183fa", "online": false },
  { "objectID": "b80e421b-86a3-423c-acef-5458cc7ec476", "online": false },
  { "objectID": "e9f8e399-e2db-4307-9cf6-46e9e660a50f", "online": false },
  { "objectID": "b48cfabc-3757-4fb7-b7a3-24b446e85291", "online": false },
  { "objectID": "cc4712c2-0ab1-40d1-9e97-571e91bc1ca4", "online": false },
  { "objectID": "8f0384fe-5e12-45b9-aa51-8b50a5dce72e", "online": false },
  { "objectID": "b1c68033-ce7f-42ac-94df-20273e8c8d95", "online": false },
  { "objectID": "945cbd58-a73b-42f8-9d63-5ef4d3f0c551", "online": false },
  { "objectID": "e086a945-050c-4717-ba23-5f1b43516048", "online": false },
  { "objectID": "4e92651e-6a43-4a20-8a08-f114b8855399", "online": false },
  { "objectID": "63f5b8db-de05-42c3-9bc3-fc449fe48365", "online": false },
  { "objectID": "9fa952f0-a5d8-440d-8b6f-1629229ea6d9", "online": false },
  { "objectID": "c310c0ed-5bb6-42b7-b58a-64aed5368fa9", "online": false },
  { "objectID": "2c9621d4-36bc-4390-8e13-0b99167e9267", "online": false },
  { "objectID": "b80e421b-86a3-423c-acef-5458cc7ec476", "online": false },
  { "objectID": "e9f8e399-e2db-4307-9cf6-46e9e660a50f", "online": false },
  { "objectID": "664b7115-d371-407b-b85f-a8769433b92c", "online": false },
  { "objectID": "b48cfabc-3757-4fb7-b7a3-24b446e85291", "online": false },
  { "objectID": "8df665e9-8bc2-4177-8221-c4a424e95ce8", "online": false },
  { "objectID": "739bffd9-70cc-40da-bea7-0e8a352920bc", "online": false },
  { "objectID": "b1c68033-ce7f-42ac-94df-20273e8c8d95", "online": false },
  { "objectID": "945cbd58-a73b-42f8-9d63-5ef4d3f0c551", "online": false },
  { "objectID": "c7b1508a-a77d-493d-b24d-1f48f3c7053b", "online": false },
  { "objectID": "05eb491b-d4e9-416e-abbd-735f0880d261", "online": false },
  { "objectID": "d614b068-c407-4d7a-9fda-24869f74f65b", "online": false },
  { "objectID": "5cde88c4-0582-40e2-ac1f-3b63904931c6", "online": false },
  { "objectID": "d53777c5-8151-4748-ae76-70cafd8af563", "online": false },
  { "objectID": "7c8256c5-4460-4fc5-bd78-c4ee89e77c5f", "online": false }
]
