[
  { "objectID": "affeaf37-5c61-4a5a-8d9e-010917386747", "online": false },
  { "objectID": "7d142daa-b89d-4fe4-a1d0-9cfebdd991db", "online": false },
  { "objectID": "cd46d0df-8a4d-414e-bbe6-c44e35a34712", "online": false },
  { "objectID": "7c8781cb-cc94-4236-9d2f-4ecf736dc3c1", "online": false },
  { "objectID": "f2ad4594-d870-499e-8232-55fb0a00a5ca", "online": false },
  { "objectID": "e4b98fe2-79ba-4890-bfa3-3f4b0c3440c3", "online": false },
  { "objectID": "4d7e07f3-b17e-41e7-b6be-ca51dfbe574c", "online": false },
  { "objectID": "34685939-9c14-466d-aca1-894a12d6e7c4", "online": false },
  { "objectID": "e646f339-84f4-4b77-bea2-8e56c6cdbc02", "online": false },
  { "objectID": "7f4f6dd2-cdf1-48e1-ba66-7d6c9178b483", "online": false },
  { "objectID": "04204b70-9e62-421c-8393-1f46393eb7da", "online": false },
  { "objectID": "37e6e50b-5907-4d76-9226-e3edf060d3a0", "online": false },
  { "objectID": "affeaf37-5c61-4a5a-8d9e-010917386747", "online": false },
  { "objectID": "cd46d0df-8a4d-414e-bbe6-c44e35a34712", "online": false },
  { "objectID": "5e95a7d7-60ef-415b-8bce-d2862957ec8d", "online": false },
  { "objectID": "f2ad4594-d870-499e-8232-55fb0a00a5ca", "online": false },
  { "objectID": "e4b98fe2-79ba-4890-bfa3-3f4b0c3440c3", "online": false },
  { "objectID": "4d7e07f3-b17e-41e7-b6be-ca51dfbe574c", "online": false },
  { "objectID": "34685939-9c14-466d-aca1-894a12d6e7c4", "online": false },
  { "objectID": "e646f339-84f4-4b77-bea2-8e56c6cdbc02", "online": false },
  { "objectID": "7f4f6dd2-cdf1-48e1-ba66-7d6c9178b483", "online": false },
  { "objectID": "37e6e50b-5907-4d76-9226-e3edf060d3a0", "online": false },
  { "objectID": "04204b70-9e62-421c-8393-1f46393eb7da", "online": false },
  { "objectID": "Kris_Ma_99d200f", "online": false },
  { "objectID": "1365f574-cbd8-437b-bd85-07db364eb6d7", "online": false },
  { "objectID": "lksjimmy_ab2d4ab_cbdca8", "online": false },
  { "objectID": "cbd64ead-7b68-4f46-871d-ac2586709de5", "online": false },
  { "objectID": "bfe65285-433a-44ea-a90f-2f933397681c", "online": false },
  { "objectID": "c01317f0-aa9f-464e-9430-eb3cae34837c", "online": false },
  { "objectID": "Aki_Honey_ghbasscompany2024125300", "online": false }
]
