[
  { "objectID": "vembulous_90333a0", "online": false },
  { "objectID": "7c66b61c-ed18-4ab9-99a5-98a14883310c", "online": false },
  { "objectID": "33d7c107-eb4a-453a-b31b-0a36870bdd5c", "online": false },
  { "objectID": "f1a67c65-3776-47bf-b5da-05ef4eb579ae", "online": false },
  { "objectID": "5e43167e-3331-485a-b56d-6b604d26e61b", "online": false },
  { "objectID": "af315243-f2f3-4dd0-8a17-ede1770d75d2", "online": false },
  { "objectID": "4816f77f-50af-4b9d-a3b5-fb26f8aeb217", "online": false },
  { "objectID": "ae9a24ed-78f1-4233-bcbd-03817c52fa0f", "online": false },
  { "objectID": "c5b9df4d-6809-4c1c-ad9c-29eb2ecd508f", "online": false },
  { "objectID": "a76375c9-d53c-4462-bd58-2ae095caf9c9", "online": false },
  { "objectID": "33d7c107-eb4a-453a-b31b-0a36870bdd5c", "online": false },
  { "objectID": "f1a67c65-3776-47bf-b5da-05ef4eb579ae", "online": false },
  { "objectID": "5e43167e-3331-485a-b56d-6b604d26e61b", "online": false },
  { "objectID": "af315243-f2f3-4dd0-8a17-ede1770d75d2", "online": false },
  { "objectID": "ae9a24ed-78f1-4233-bcbd-03817c52fa0f", "online": false },
  { "objectID": "a76375c9-d53c-4462-bd58-2ae095caf9c9", "online": false },
  { "objectID": "c5b9df4d-6809-4c1c-ad9c-29eb2ecd508f", "online": false },
  { "objectID": "vembulous_90333a0", "online": false }
]
