[
  { "objectID": "7f4f6dd2-cdf1-48e1-ba66-7d6c9178b483", "online": false },
  { "objectID": "334c0be5-61d4-4a01-9206-45bc9e0612f5", "online": false },
  { "objectID": "6afa6d20-cea3-41c2-a341-1bbae5920eb3", "online": false },
  { "objectID": "e38016a4-146b-4016-8481-0f9b38e5bac0", "online": false },
  { "objectID": "ab34a004-3623-4363-8007-390fcc060172", "online": false },
  { "objectID": "7f4f6dd2-cdf1-48e1-ba66-7d6c9178b483", "online": false },
  { "objectID": "334c0be5-61d4-4a01-9206-45bc9e0612f5", "online": false },
  { "objectID": "6afa6d20-cea3-41c2-a341-1bbae5920eb3", "online": false },
  { "objectID": "2cb15a7b-4e87-4427-85c9-973aca69c423", "online": false },
  { "objectID": "e38016a4-146b-4016-8481-0f9b38e5bac0", "online": false },
  { "objectID": "ab34a004-3623-4363-8007-390fcc060172", "online": false },
  { "objectID": "29655817-cbd6-45a0-8cf6-c30f1c16c8ec", "online": false },
  { "objectID": "ef311a3b-cbd0-4bd8-8be8-01cd81d3522f", "online": false },
  { "objectID": "c3271aa5-95c1-469c-8542-f23ec6996238", "online": false },
  { "objectID": "19d2a4b5-3830-4818-91b4-6458203f8f03", "online": false },
  { "objectID": "a2b5da8a-f339-4077-9d12-1303857dc8fb", "online": false },
  { "objectID": "af8b0e4a-94bb-42d8-8998-71ed3def9420", "online": false },
  { "objectID": "262172ac-79d2-4ee9-80dc-463a80a85ac8", "online": false },
  { "objectID": "ff0df4cd-409a-4929-8454-96393e5bd74b", "online": false },
  { "objectID": "bff168b0-24f8-405f-85bc-59343f0d6cf3", "online": false },
  { "objectID": "5a9da9ab-4b71-49e8-8f75-48f226f4d67a", "online": false },
  { "objectID": "1ce64f26-d7c6-4781-b8a4-c666ee24f889", "online": false },
  { "objectID": "b1383b4e-00ad-4088-8aac-f6dd98cc3675", "online": false },
  { "objectID": "b14981d8-8eb6-4e21-9929-d272574913d0", "online": false },
  { "objectID": "e32b7dfd-7854-469d-80ef-5bcf981b0adf", "online": false },
  { "objectID": "18c35aa7-830b-4641-8eb6-3e610620076e", "online": false },
  { "objectID": "e46d24a9-92ac-4f43-a7ce-7b1a83ec32b4", "online": false }
]
