[
  { "objectID": "be4ca743-0af8-427f-a425-91cfa903eb3d", "online": false },
  { "objectID": "vembulous_e9ec646", "online": false },
  { "objectID": "67f6ec9a-31a7-4243-8abf-653b5576eb17", "online": false },
  { "objectID": "312caaa0-a43f-4a26-b87c-00fda2ba5330", "online": false },
  { "objectID": "3c0e39e6-ee09-4afa-81c1-ca3395a3fb44", "online": false },
  { "objectID": "936cacd4-94ce-4ee1-bd3b-517bec28395b", "online": false },
  { "objectID": "42620239-ae26-48be-af18-15eab4d12d49", "online": false },
  { "objectID": "f030a47c-8bd6-4e38-9020-0fee7c1dc3d9", "online": false },
  { "objectID": "b3782a5f-e808-4455-b4d1-8f4c9f19dec7", "online": false },
  { "objectID": "68e0c575-3a66-4c30-8ac8-38c4ebb85ddc", "online": false },
  { "objectID": "1d9bb5ef-990e-4751-8c2d-abaa1c87a9d7", "online": false },
  { "objectID": "d4c5c669-e627-44bb-a02d-d623c409bf3f", "online": false },
  { "objectID": "41f78c60-6eb2-47c4-bbdb-2fd107aba412", "online": false },
  { "objectID": "a2540a5c-c15e-443d-8e3b-b52c5addd065", "online": false },
  { "objectID": "1f71251b-f406-490c-bcab-5c09a4a89c83", "online": false },
  { "objectID": "65870d2c-4a65-445e-9db2-61de316449a7", "online": false },
  { "objectID": "ac5864e2-9ebd-40d0-87b8-b9985207a358", "online": false },
  { "objectID": "31e028f6-2686-4897-b538-8ffb889fcf8a", "online": false },
  { "objectID": "d10ee808-a56a-4372-89f4-7fa7dde03842", "online": false },
  { "objectID": "49ed8234-e6e1-40b6-b2d4-a28f015ccb87", "online": false },
  { "objectID": "28b1c697-7bb4-43f7-9e13-0488e052b682", "online": false },
  { "objectID": "83ac46e5-0970-422e-8465-59e83d105477", "online": false },
  { "objectID": "vembulous_e9ec646", "online": false },
  { "objectID": "vembulous_bcd774c_cf864e", "online": false },
  { "objectID": "67f6ec9a-31a7-4243-8abf-653b5576eb17", "online": false },
  { "objectID": "312caaa0-a43f-4a26-b87c-00fda2ba5330", "online": false },
  { "objectID": "3c0e39e6-ee09-4afa-81c1-ca3395a3fb44", "online": false },
  { "objectID": "936cacd4-94ce-4ee1-bd3b-517bec28395b", "online": false },
  { "objectID": "42620239-ae26-48be-af18-15eab4d12d49", "online": false },
  { "objectID": "f030a47c-8bd6-4e38-9020-0fee7c1dc3d9", "online": false },
  { "objectID": "b3782a5f-e808-4455-b4d1-8f4c9f19dec7", "online": false },
  { "objectID": "68e0c575-3a66-4c30-8ac8-38c4ebb85ddc", "online": false },
  { "objectID": "1d9bb5ef-990e-4751-8c2d-abaa1c87a9d7", "online": false },
  { "objectID": "41f78c60-6eb2-47c4-bbdb-2fd107aba412", "online": false },
  { "objectID": "a2540a5c-c15e-443d-8e3b-b52c5addd065", "online": false },
  { "objectID": "1f71251b-f406-490c-bcab-5c09a4a89c83", "online": false },
  { "objectID": "6e1bf799-3df9-4995-aaf9-73de0062396e", "online": false },
  { "objectID": "d10ee808-a56a-4372-89f4-7fa7dde03842", "online": false },
  { "objectID": "49ed8234-e6e1-40b6-b2d4-a28f015ccb87", "online": false },
  { "objectID": "28b1c697-7bb4-43f7-9e13-0488e052b682", "online": false },
  { "objectID": "83ac46e5-0970-422e-8465-59e83d105477", "online": false },
  { "objectID": "b4bf6b69-3aff-488d-b1f9-91a9cdf97c7f", "online": false },
  { "objectID": "6787da89-25d5-471a-95d7-375236d4a685", "online": false },
  { "objectID": "7e27efaa-c0a9-4825-93a1-8cd46e0622e6", "online": false },
  { "objectID": "b5c72289-88b6-42b5-be30-ba160b8fed45", "online": false },
  { "objectID": "7847b8f9-fb67-4168-a6cc-b56690161e68", "online": false },
  { "objectID": "6f0bab06-e3e1-4155-982e-abe4d48bfbbe", "online": false },
  { "objectID": "e11b5512-76ab-461c-9d47-e08e0fb307f2", "online": false },
  { "objectID": "23142bc3-eb08-46ab-bc41-43dca7faecef", "online": false },
  { "objectID": "8be4d14b-f65c-45c9-956f-6c97859e6457", "online": false },
  { "objectID": "3a105797-cf82-4b28-82ae-a3d3b143270d", "online": false }
]
